Vrednicu Eugen-Andrei | 0111111111 | 20 | Nu | 0
Vasiloiu Ioana-Maria | 0722222222 | 19 | Da | 7
Gabriel Mihai-Marin | 0744444444 | 22 | Da | 3
Vasile Andrei | 0755555555 | 20 | Da | 2
Eugen | 0766666666 | 20 | Da | 23
